Introduction to R
…
## # A tibble: 1 x 3
##   mean_mass num_alderaan ratio_humans
##       <dbl>        <int>        <dbl>
## 1      97.3            3         40.2

Body mass index

data('starwars')

Sort all characters by their BMI

\[ BMI = weight / height^2 [kg/m^2] \]

## # A tibble: 87 x 4
##    name                  height  mass   bmi
##    <chr>                  <int> <dbl> <dbl>
##  1 Jabba Desilijic Tiure    175  1358 443. 
##  2 Dud Bolt                  94    45  50.9
##  3 Yoda                      66    17  39.0
##  4 Owen Lars                178   120  37.9
##  5 IG-88                    200   140  35  
##  6 R2-D2                     96    32  34.7
##  7 Grievous                 216   159  34.1
##  8 R5-D4                     97    32  34.0
##  9 Jek Tono Porkins         180   110  34.0
## 10 Darth Vader              202   136  33.3
## # ... with 77 more rows
…
Gapminder

require(gapminder)
gapminder

## # A tibble: 1,704 x 6
##    country     continent  year lifeExp      pop gdpPercap
##    <fct>       <fct>     <int>   <dbl>    <int>     <dbl>
##  1 Afghanistan Asia       1952    28.8  8425333      779.
##  2 Afghanistan Asia       1957    30.3  9240934      821.
##  3 Afghanistan Asia       1962    32.0 10267083      853.
##  4 Afghanistan Asia       1967    34.0 11537966      836.
##  5 Afghanistan Asia       1972    36.1 13079460      740.
##  6 Afghanistan Asia       1977    38.4 14880372      786.
##  7 Afghanistan Asia       1982    39.9 12881816      978.
##  8 Afghanistan Asia       1987    40.8 13867957      852.
##  9 Afghanistan Asia       1992    41.7 16317921      649.
## 10 Afghanistan Asia       1997    41.8 22227415      635.
## # ... with 1,694 more rows
…
But what does wide or long table mean?

Long table - each observation on its own row (gapminder)

Wide table - some grouping factors are used as columns ("statistika PID")

Usually, it is easier to work with long tables using group_by.

Wide to long

gapminder %>% 
  gather('variable', 'value', -country, -continent, -year)

## # A tibble: 5,112 x 5
##    country     continent  year variable value
##    <fct>       <fct>     <int> <chr>    <dbl>
##  1 Afghanistan Asia       1952 lifeExp   28.8
##  2 Afghanistan Asia       1957 lifeExp   30.3
##  3 Afghanistan Asia       1962 lifeExp   32.0
##  4 Afghanistan Asia       1967 lifeExp   34.0
##  5 Afghanistan Asia       1972 lifeExp   36.1
##  6 Afghanistan Asia       1977 lifeExp   38.4
##  7 Afghanistan Asia       1982 lifeExp   39.9
##  8 Afghanistan Asia       1987 lifeExp   40.8
##  9 Afghanistan Asia       1992 lifeExp   41.7
## 10 Afghanistan Asia       1997 lifeExp   41.8
## # ... with 5,102 more rows

Long to wide

gapminder %>% 
  select(-pop, -gdpPercap) %>% 
  spread('year', 'lifeExp')

## # A tibble: 142 x 14
##    country continent `1952` `1957` `1962` `1967` `1972` `1977` `1982`
##    <fct>   <fct>      <dbl>  <dbl>  <dbl>  <dbl>  <dbl>  <dbl>  <dbl>
##  1 Afghan Asia        28.8   30.3   32.0   34.0   36.1   38.4   39.9
##  2 Albania Europe      55.2   59.3   64.8   66.2   67.7   68.9   70.4
##  3 Algeria Africa      43.1   45.7   48.3   51.4   54.5   58.0   61.4
##  4 Angola  Africa      30.0   32.0   34     36.0   37.9   39.5   39.9
##  5 Argent Americas    62.5   64.4   65.1   65.6   67.1   68.5   69.9
##  6 Austra Oceania     69.1   70.3   70.9   71.1   71.9   73.5   74.7
##  7 Austria Europe      66.8   67.5   69.5   70.1   70.6   72.2   73.2
##  8 Bahrain Asia        50.9   53.8   56.9   59.9   63.3   65.6   69.1
##  9 Bangla Asia        37.5   39.3   41.2   43.5   45.3   46.9   50.0
## 10 Belgium Europe      68     69.2   70.2   70.9   71.4   72.8   73.9
## # ... with 132 more rows, and 5 more variables: `1987` <dbl>,
## #   `1992` <dbl>, `1997` <dbl>, `2002` <dbl>, `2007` <dbl>
…
